%!PS-Adobe-2.0 EPSF-2.0
%%Title: s-BZ.eps
%%Titre: s-BZ.eps
%%Creator: Fminigraf Library
%%BoundingBox: 20 40 567 457
%%EndComments
/offx 20 def
/offy 40 def
/lx 595 def
/ly 842 def
/maxx 1023 def
/maxy 779 def
/reduc 0.92 def
/coeff lx maxx div reduc mul def
offx offy translate
coeff coeff scale
1 setlinewidth newpath 0 0 moveto
/Courier-Bold findfont 32 scalefont setfont
/M {moveto} def
/L {lineto} def
/S {stroke} def
/H {show} def
/D {setdash} def
0 0 0 setrgbcolor
[] 0 D
[] 0 D
115 156 M 115 161 L S
115 735 M 115 740 L S
144 156 M 144 161 L S
144 735 M 144 740 L S
174 156 M 174 161 L S
174 735 M 174 740 L S
204 156 M 204 161 L S
204 735 M 204 740 L S
[2 3] 0 D
234 156 M 234 740 L S
[] 0 D
/Courier-Bold findfont 30 scalefont setfont
228 128 M (1) H
234 156 M 234 166 L S
234 730 M 234 740 L S
263 156 M 263 161 L S
263 735 M 263 740 L S
293 156 M 293 161 L S
293 735 M 293 740 L S
323 156 M 323 161 L S
323 735 M 323 740 L S
353 156 M 353 161 L S
353 735 M 353 740 L S
[2 3] 0 D
382 156 M 382 740 L S
[] 0 D
376 128 M (2) H
382 156 M 382 166 L S
382 730 M 382 740 L S
412 156 M 412 161 L S
412 735 M 412 740 L S
442 156 M 442 161 L S
442 735 M 442 740 L S
472 156 M 472 161 L S
472 735 M 472 740 L S
502 156 M 502 161 L S
502 735 M 502 740 L S
[2 3] 0 D
531 156 M 531 740 L S
[] 0 D
525 128 M (3) H
531 156 M 531 166 L S
531 730 M 531 740 L S
561 156 M 561 161 L S
561 735 M 561 740 L S
591 156 M 591 161 L S
591 735 M 591 740 L S
621 156 M 621 161 L S
621 735 M 621 740 L S
650 156 M 650 161 L S
650 735 M 650 740 L S
[2 3] 0 D
680 156 M 680 740 L S
[] 0 D
674 128 M (4) H
680 156 M 680 166 L S
680 730 M 680 740 L S
710 156 M 710 161 L S
710 735 M 710 740 L S
740 156 M 740 161 L S
740 735 M 740 740 L S
769 156 M 769 161 L S
769 735 M 769 740 L S
799 156 M 799 161 L S
799 735 M 799 740 L S
[2 3] 0 D
829 156 M 829 740 L S
[] 0 D
823 128 M (5) H
829 156 M 829 166 L S
829 730 M 829 740 L S
859 156 M 859 161 L S
859 735 M 859 740 L S
888 156 M 888 161 L S
888 735 M 888 740 L S
918 156 M 918 161 L S
918 735 M 918 740 L S
948 156 M 948 161 L S
948 735 M 948 740 L S
[2 3] 0 D
102 156 M 972 156 L S
[] 0 D
102 156 M 112 156 L S
962 156 M 972 156 L S
102 178 M 107 178 L S
967 178 M 972 178 L S
102 200 M 107 200 L S
967 200 M 972 200 L S
102 222 M 107 222 L S
967 222 M 972 222 L S
[2 3] 0 D
102 244 M 972 244 L S
[] 0 D
33 234 M (0.2) H
102 244 M 112 244 L S
962 244 M 972 244 L S
102 266 M 107 266 L S
967 266 M 972 266 L S
102 288 M 107 288 L S
967 288 M 972 288 L S
102 310 M 107 310 L S
967 310 M 972 310 L S
[2 3] 0 D
102 332 M 972 332 L S
[] 0 D
33 322 M (0.4) H
102 332 M 112 332 L S
962 332 M 972 332 L S
102 354 M 107 354 L S
967 354 M 972 354 L S
102 376 M 107 376 L S
967 376 M 972 376 L S
102 398 M 107 398 L S
967 398 M 972 398 L S
[2 3] 0 D
102 420 M 972 420 L S
[] 0 D
33 410 M (0.6) H
102 420 M 112 420 L S
962 420 M 972 420 L S
102 443 M 107 443 L S
967 443 M 972 443 L S
102 465 M 107 465 L S
967 465 M 972 465 L S
102 487 M 107 487 L S
967 487 M 972 487 L S
[2 3] 0 D
102 509 M 972 509 L S
[] 0 D
33 499 M (0.8) H
102 509 M 112 509 L S
962 509 M 972 509 L S
102 531 M 107 531 L S
967 531 M 972 531 L S
102 553 M 107 553 L S
967 553 M 972 553 L S
102 575 M 107 575 L S
967 575 M 972 575 L S
[2 3] 0 D
102 597 M 972 597 L S
[] 0 D
39 587 M (1.) H
102 597 M 112 597 L S
962 597 M 972 597 L S
102 619 M 107 619 L S
967 619 M 972 619 L S
102 641 M 107 641 L S
967 641 M 972 641 L S
102 663 M 107 663 L S
967 663 M 972 663 L S
[2 3] 0 D
102 685 M 972 685 L S
[] 0 D
33 675 M (1.2) H
102 685 M 112 685 L S
962 685 M 972 685 L S
102 707 M 107 707 L S
967 707 M 972 707 L S
102 729 M 107 729 L S
967 729 M 972 729 L S
[] 0 D
102 156 M 972 156 L S
972 156 M 972 740 L S
972 740 M 102 740 L S
102 740 M 102 156 L S
[] 0 D
102 156 M 102 156 L S
102 156 M 102 156 L S
102 156 M 103 156 L S
103 156 M 104 156 L S
104 156 M 106 156 L S
106 156 M 107 156 L S
107 156 M 108 156 L S
108 156 M 109 156 L S
109 156 M 110 156 L S
110 156 M 112 156 L S
112 156 M 113 156 L S
113 156 M 114 156 L S
114 156 M 115 156 L S
115 156 M 116 156 L S
116 156 M 117 156 L S
117 156 M 119 156 L S
119 156 M 120 156 L S
120 156 M 121 156 L S
121 156 M 122 156 L S
122 156 M 123 156 L S
123 156 M 125 157 L S
125 157 M 126 158 L S
126 158 M 127 161 L S
127 161 M 128 165 L S
128 165 M 129 172 L S
129 172 M 131 181 L S
131 181 M 132 193 L S
132 193 M 133 207 L S
133 207 M 134 225 L S
134 225 M 135 244 L S
135 244 M 137 267 L S
137 267 M 138 291 L S
138 291 M 139 319 L S
139 319 M 140 351 L S
140 351 M 141 388 L S
141 388 M 142 429 L S
142 429 M 144 476 L S
144 476 M 145 526 L S
145 526 M 146 575 L S
146 575 M 147 619 L S
147 619 M 148 654 L S
148 654 M 150 679 L S
150 679 M 151 694 L S
151 694 M 152 702 L S
152 702 M 153 705 L S
153 705 M 154 707 L S
154 707 M 156 707 L S
156 707 M 157 707 L S
157 707 M 158 708 L S
158 708 M 159 708 L S
159 708 M 160 708 L S
160 708 M 162 708 L S
162 708 M 163 708 L S
163 708 M 164 708 L S
164 708 M 165 708 L S
165 708 M 166 708 L S
166 708 M 167 708 L S
167 708 M 169 708 L S
169 708 M 170 708 L S
170 708 M 171 708 L S
171 708 M 172 708 L S
172 708 M 173 708 L S
173 708 M 175 708 L S
175 708 M 176 708 L S
176 708 M 177 708 L S
177 708 M 178 708 L S
178 708 M 179 708 L S
179 708 M 181 708 L S
181 708 M 182 708 L S
182 708 M 183 708 L S
183 708 M 184 708 L S
184 708 M 185 708 L S
185 708 M 187 708 L S
187 708 M 188 708 L S
188 708 M 189 708 L S
189 708 M 190 708 L S
190 708 M 191 708 L S
191 708 M 192 708 L S
192 708 M 194 708 L S
194 708 M 195 708 L S
195 708 M 196 708 L S
196 708 M 197 708 L S
197 708 M 198 708 L S
198 708 M 200 708 L S
200 708 M 201 708 L S
201 708 M 202 708 L S
202 708 M 203 708 L S
203 708 M 204 708 L S
204 708 M 206 708 L S
206 708 M 207 708 L S
207 708 M 208 708 L S
208 708 M 209 708 L S
209 708 M 210 708 L S
210 708 M 212 708 L S
212 708 M 213 708 L S
213 708 M 214 708 L S
214 708 M 215 708 L S
215 708 M 216 708 L S
216 708 M 217 708 L S
217 708 M 219 708 L S
219 708 M 220 708 L S
220 708 M 221 708 L S
221 708 M 222 708 L S
222 708 M 223 709 L S
223 709 M 225 710 L S
225 710 M 226 712 L S
226 712 M 227 716 L S
227 716 M 228 721 L S
228 721 M 229 728 L S
229 728 M 231 735 L S
231 735 M 232 739 L S
232 739 M 233 739 L S
233 739 M 234 730 L S
234 730 M 235 714 L S
235 714 M 237 692 L S
237 692 M 238 669 L S
238 669 M 239 651 L S
239 651 M 240 642 L S
240 642 M 241 643 L S
241 643 M 242 654 L S
242 654 M 244 673 L S
244 673 M 245 695 L S
245 695 M 246 716 L S
246 716 M 247 731 L S
247 731 M 248 738 L S
248 738 M 250 737 L S
250 737 M 251 732 L S
251 732 M 252 725 L S
252 725 M 253 718 L S
253 718 M 254 713 L S
254 713 M 256 710 L S
256 710 M 257 708 L S
257 708 M 258 707 L S
258 707 M 259 706 L S
259 706 M 260 706 L S
260 706 M 262 706 L S
262 706 M 263 706 L S
263 706 M 264 706 L S
264 706 M 265 706 L S
265 706 M 266 706 L S
266 706 M 267 706 L S
267 706 M 269 706 L S
269 706 M 270 706 L S
270 706 M 271 706 L S
271 706 M 272 706 L S
272 706 M 273 706 L S
273 706 M 275 706 L S
275 706 M 276 706 L S
276 706 M 277 706 L S
277 706 M 278 706 L S
278 706 M 279 706 L S
279 706 M 281 706 L S
281 706 M 282 706 L S
282 706 M 283 706 L S
283 706 M 284 706 L S
284 706 M 285 706 L S
285 706 M 287 706 L S
287 706 M 288 706 L S
288 706 M 289 706 L S
289 706 M 290 706 L S
290 706 M 291 706 L S
291 706 M 292 706 L S
292 706 M 294 706 L S
294 706 M 295 706 L S
295 706 M 296 706 L S
296 706 M 297 706 L S
297 706 M 298 706 L S
298 706 M 300 706 L S
300 706 M 301 706 L S
301 706 M 302 706 L S
302 706 M 303 706 L S
303 706 M 304 706 L S
304 706 M 306 706 L S
306 706 M 307 706 L S
307 706 M 308 706 L S
308 706 M 309 706 L S
309 706 M 310 706 L S
310 706 M 312 706 L S
312 706 M 313 706 L S
313 706 M 314 706 L S
314 706 M 315 706 L S
315 706 M 316 706 L S
316 706 M 317 706 L S
317 706 M 319 706 L S
319 706 M 320 706 L S
320 706 M 321 706 L S
321 706 M 322 706 L S
322 706 M 323 706 L S
323 706 M 325 706 L S
325 706 M 326 706 L S
326 706 M 327 706 L S
327 706 M 328 706 L S
328 706 M 329 706 L S
329 706 M 331 706 L S
331 706 M 332 706 L S
332 706 M 333 706 L S
333 706 M 334 706 L S
334 706 M 335 706 L S
335 706 M 337 706 L S
337 706 M 338 706 L S
338 706 M 339 706 L S
339 706 M 340 706 L S
340 706 M 341 706 L S
341 706 M 342 706 L S
342 706 M 344 706 L S
344 706 M 345 706 L S
345 706 M 346 706 L S
346 706 M 347 706 L S
347 706 M 348 706 L S
348 706 M 350 706 L S
350 706 M 351 706 L S
351 706 M 352 706 L S
352 706 M 353 706 L S
353 706 M 354 706 L S
354 706 M 356 706 L S
356 706 M 357 706 L S
357 706 M 358 706 L S
358 706 M 359 706 L S
359 706 M 360 706 L S
360 706 M 362 706 L S
362 706 M 363 706 L S
363 706 M 364 706 L S
364 706 M 365 706 L S
365 706 M 366 706 L S
366 706 M 367 706 L S
367 706 M 369 706 L S
369 706 M 370 706 L S
370 706 M 371 706 L S
371 706 M 372 706 L S
372 706 M 373 706 L S
373 706 M 375 706 L S
375 706 M 376 706 L S
376 706 M 377 706 L S
377 706 M 378 706 L S
378 706 M 379 706 L S
379 706 M 381 706 L S
381 706 M 382 706 L S
382 706 M 383 706 L S
383 706 M 384 706 L S
384 706 M 385 706 L S
385 706 M 387 706 L S
387 706 M 388 706 L S
388 706 M 389 706 L S
389 706 M 390 706 L S
390 706 M 391 706 L S
391 706 M 392 706 L S
392 706 M 394 706 L S
394 706 M 395 706 L S
395 706 M 396 706 L S
396 706 M 397 706 L S
397 706 M 398 706 L S
398 706 M 400 706 L S
400 706 M 401 706 L S
401 706 M 402 706 L S
402 706 M 403 706 L S
403 706 M 404 706 L S
404 706 M 406 706 L S
406 706 M 407 706 L S
407 706 M 408 706 L S
408 706 M 409 706 L S
409 706 M 410 706 L S
410 706 M 412 706 L S
412 706 M 413 706 L S
413 706 M 414 706 L S
414 706 M 415 706 L S
415 706 M 416 706 L S
416 706 M 417 706 L S
417 706 M 419 706 L S
419 706 M 420 706 L S
420 706 M 421 707 L S
421 707 M 422 708 L S
422 708 M 423 710 L S
423 710 M 425 713 L S
425 713 M 426 718 L S
426 718 M 427 725 L S
427 725 M 428 732 L S
428 732 M 429 737 L S
429 737 M 431 738 L S
431 738 M 432 732 L S
432 732 M 433 717 L S
433 717 M 434 696 L S
434 696 M 435 674 L S
435 674 M 437 655 L S
437 655 M 438 643 L S
438 643 M 439 642 L S
439 642 M 440 651 L S
440 651 M 441 668 L S
441 668 M 442 691 L S
442 691 M 444 713 L S
444 713 M 445 730 L S
445 730 M 446 738 L S
446 738 M 447 739 L S
447 739 M 448 735 L S
448 735 M 450 728 L S
450 728 M 451 722 L S
451 722 M 452 716 L S
452 716 M 453 712 L S
453 712 M 454 710 L S
454 710 M 456 709 L S
456 709 M 457 708 L S
457 708 M 458 708 L S
458 708 M 459 708 L S
459 708 M 460 708 L S
460 708 M 462 708 L S
462 708 M 463 708 L S
463 708 M 464 708 L S
464 708 M 465 708 L S
465 708 M 466 708 L S
466 708 M 467 708 L S
467 708 M 469 708 L S
469 708 M 470 708 L S
470 708 M 471 708 L S
471 708 M 472 708 L S
472 708 M 473 708 L S
473 708 M 475 708 L S
475 708 M 476 708 L S
476 708 M 477 708 L S
477 708 M 478 708 L S
478 708 M 479 708 L S
479 708 M 481 708 L S
481 708 M 482 708 L S
482 708 M 483 708 L S
483 708 M 484 708 L S
484 708 M 485 708 L S
485 708 M 487 708 L S
487 708 M 488 708 L S
488 708 M 489 708 L S
489 708 M 490 708 L S
490 708 M 491 708 L S
491 708 M 492 708 L S
492 708 M 494 708 L S
494 708 M 495 708 L S
495 708 M 496 708 L S
496 708 M 497 708 L S
497 708 M 498 708 L S
498 708 M 500 708 L S
500 708 M 501 708 L S
501 708 M 502 708 L S
502 708 M 503 708 L S
503 708 M 504 708 L S
504 708 M 506 708 L S
506 708 M 507 708 L S
507 708 M 508 708 L S
508 708 M 509 708 L S
509 708 M 510 708 L S
510 708 M 512 708 L S
512 708 M 513 708 L S
513 708 M 514 708 L S
514 708 M 515 708 L S
515 708 M 516 708 L S
516 708 M 517 708 L S
517 708 M 519 708 L S
519 708 M 520 708 L S
520 708 M 521 708 L S
521 708 M 522 708 L S
522 708 M 523 708 L S
523 708 M 525 708 L S
525 708 M 526 708 L S
526 708 M 527 708 L S
527 708 M 528 708 L S
528 708 M 529 708 L S
529 708 M 531 708 L S
531 708 M 532 708 L S
532 708 M 533 708 L S
533 708 M 534 708 L S
534 708 M 535 708 L S
535 708 M 537 708 L S
537 708 M 537 708 L S
537 708 M 539 708 L S
539 708 M 540 708 L S
540 708 M 541 708 L S
541 708 M 542 708 L S
542 708 M 543 708 L S
543 708 M 545 708 L S
545 708 M 546 708 L S
546 708 M 547 708 L S
547 708 M 548 708 L S
548 708 M 549 708 L S
549 708 M 551 708 L S
551 708 M 552 708 L S
552 708 M 553 708 L S
553 708 M 554 708 L S
554 708 M 555 708 L S
555 708 M 557 708 L S
557 708 M 558 708 L S
558 708 M 559 708 L S
559 708 M 560 708 L S
560 708 M 561 708 L S
561 708 M 562 708 L S
562 708 M 564 708 L S
564 708 M 565 708 L S
565 708 M 566 708 L S
566 708 M 567 708 L S
567 708 M 568 708 L S
568 708 M 570 708 L S
570 708 M 571 708 L S
571 708 M 572 708 L S
572 708 M 573 708 L S
573 708 M 574 708 L S
574 708 M 576 708 L S
576 708 M 577 708 L S
577 708 M 578 708 L S
578 708 M 579 708 L S
579 708 M 580 708 L S
580 708 M 582 708 L S
582 708 M 583 708 L S
583 708 M 584 708 L S
584 708 M 585 708 L S
585 708 M 586 708 L S
586 708 M 587 708 L S
587 708 M 589 708 L S
589 708 M 590 708 L S
590 708 M 591 708 L S
591 708 M 592 708 L S
592 708 M 593 708 L S
593 708 M 595 708 L S
595 708 M 596 708 L S
596 708 M 597 708 L S
597 708 M 598 708 L S
598 708 M 599 708 L S
599 708 M 601 708 L S
601 708 M 602 708 L S
602 708 M 603 708 L S
603 708 M 604 708 L S
604 708 M 605 708 L S
605 708 M 607 708 L S
607 708 M 608 708 L S
608 708 M 609 708 L S
609 708 M 610 708 L S
610 708 M 611 708 L S
611 708 M 612 708 L S
612 708 M 614 708 L S
614 708 M 615 708 L S
615 708 M 616 708 L S
616 708 M 617 708 L S
617 708 M 618 708 L S
618 708 M 620 709 L S
620 709 M 621 710 L S
621 710 M 622 713 L S
622 713 M 623 717 L S
623 717 M 624 723 L S
624 723 M 626 730 L S
626 730 M 627 736 L S
627 736 M 628 740 L S
628 740 M 629 737 L S
629 737 M 630 726 L S
630 726 M 632 708 L S
632 708 M 633 685 L S
633 685 M 634 664 L S
634 664 M 635 648 L S
635 648 M 636 641 L S
636 641 M 637 645 L S
637 645 M 639 659 L S
639 659 M 640 679 L S
640 679 M 641 702 L S
641 702 M 642 721 L S
642 721 M 643 734 L S
643 734 M 645 738 L S
645 738 M 646 736 L S
646 736 M 647 730 L S
647 730 M 648 723 L S
648 723 M 649 717 L S
649 717 M 651 712 L S
651 712 M 652 709 L S
652 709 M 653 707 L S
653 707 M 654 707 L S
654 707 M 655 706 L S
655 706 M 657 706 L S
657 706 M 658 706 L S
658 706 M 659 706 L S
659 706 M 660 706 L S
660 706 M 661 706 L S
661 706 M 662 706 L S
662 706 M 664 706 L S
664 706 M 665 706 L S
665 706 M 666 706 L S
666 706 M 667 706 L S
667 706 M 668 706 L S
668 706 M 670 706 L S
670 706 M 671 706 L S
671 706 M 672 706 L S
672 706 M 673 706 L S
673 706 M 674 706 L S
674 706 M 676 706 L S
676 706 M 677 706 L S
677 706 M 678 706 L S
678 706 M 679 706 L S
679 706 M 680 706 L S
680 706 M 682 706 L S
682 706 M 683 706 L S
683 706 M 684 706 L S
684 706 M 685 706 L S
685 706 M 686 706 L S
686 706 M 687 706 L S
687 706 M 689 706 L S
689 706 M 690 706 L S
690 706 M 691 706 L S
691 706 M 692 706 L S
692 706 M 693 706 L S
693 706 M 695 706 L S
695 706 M 696 706 L S
696 706 M 697 706 L S
697 706 M 698 706 L S
698 706 M 699 706 L S
699 706 M 701 706 L S
701 706 M 702 706 L S
702 706 M 703 706 L S
703 706 M 704 706 L S
704 706 M 705 706 L S
705 706 M 707 706 L S
707 706 M 708 706 L S
708 706 M 709 706 L S
709 706 M 710 706 L S
710 706 M 711 706 L S
711 706 M 712 706 L S
712 706 M 714 706 L S
714 706 M 715 706 L S
715 706 M 716 706 L S
716 706 M 717 706 L S
717 706 M 718 706 L S
718 706 M 720 706 L S
720 706 M 721 706 L S
721 706 M 722 706 L S
722 706 M 723 706 L S
723 706 M 724 706 L S
724 706 M 726 706 L S
726 706 M 727 706 L S
727 706 M 728 706 L S
728 706 M 729 706 L S
729 706 M 730 706 L S
730 706 M 732 706 L S
732 706 M 733 706 L S
733 706 M 734 706 L S
734 706 M 735 706 L S
735 706 M 736 706 L S
736 706 M 737 706 L S
737 706 M 739 706 L S
739 706 M 740 706 L S
740 706 M 741 706 L S
741 706 M 742 706 L S
742 706 M 743 706 L S
743 706 M 745 706 L S
745 706 M 746 706 L S
746 706 M 747 706 L S
747 706 M 748 706 L S
748 706 M 749 706 L S
749 706 M 751 706 L S
751 706 M 752 706 L S
752 706 M 753 706 L S
753 706 M 754 706 L S
754 706 M 755 706 L S
755 706 M 757 706 L S
757 706 M 758 706 L S
758 706 M 759 706 L S
759 706 M 760 706 L S
760 706 M 761 706 L S
761 706 M 762 706 L S
762 706 M 764 706 L S
764 706 M 765 706 L S
765 706 M 766 706 L S
766 706 M 767 706 L S
767 706 M 768 706 L S
768 706 M 770 706 L S
770 706 M 771 706 L S
771 706 M 772 706 L S
772 706 M 773 706 L S
773 706 M 774 706 L S
774 706 M 776 706 L S
776 706 M 777 706 L S
777 706 M 778 706 L S
778 706 M 779 706 L S
779 706 M 780 706 L S
780 706 M 782 706 L S
782 706 M 783 706 L S
783 706 M 784 706 L S
784 706 M 785 706 L S
785 706 M 786 706 L S
786 706 M 787 706 L S
787 706 M 789 706 L S
789 706 M 790 706 L S
790 706 M 791 706 L S
791 706 M 792 706 L S
792 706 M 793 706 L S
793 706 M 795 706 L S
795 706 M 796 706 L S
796 706 M 797 706 L S
797 706 M 798 706 L S
798 706 M 799 706 L S
799 706 M 801 706 L S
801 706 M 802 706 L S
802 706 M 803 706 L S
803 706 M 804 706 L S
804 706 M 805 706 L S
805 706 M 807 706 L S
807 706 M 808 706 L S
808 706 M 809 706 L S
809 706 M 810 706 L S
810 706 M 811 706 L S
811 706 M 812 706 L S
812 706 M 814 706 L S
814 706 M 815 706 L S
815 706 M 816 706 L S
816 706 M 817 707 L S
817 707 M 818 708 L S
818 708 M 820 711 L S
820 711 M 821 714 L S
821 714 M 822 720 L S
822 720 M 823 727 L S
823 727 M 824 733 L S
824 733 M 826 738 L S
826 738 M 827 737 L S
827 737 M 828 728 L S
828 728 M 829 712 L S
829 712 M 830 690 L S
830 690 M 832 668 L S
832 668 M 833 651 L S
833 651 M 834 642 L S
834 642 M 835 643 L S
835 643 M 836 655 L S
836 655 M 837 674 L S
837 674 M 839 697 L S
839 697 M 840 718 L S
840 718 M 841 733 L S
841 733 M 842 739 L S
842 739 M 843 739 L S
843 739 M 845 733 L S
845 733 M 846 726 L S
846 726 M 847 720 L S
847 720 M 848 715 L S
848 715 M 849 712 L S
849 712 M 851 710 L S
851 710 M 852 708 L S
852 708 M 853 708 L S
853 708 M 854 708 L S
854 708 M 855 708 L S
855 708 M 857 708 L S
857 708 M 858 708 L S
858 708 M 859 708 L S
859 708 M 860 708 L S
860 708 M 861 708 L S
861 708 M 862 708 L S
862 708 M 864 708 L S
864 708 M 865 708 L S
865 708 M 866 708 L S
866 708 M 867 708 L S
867 708 M 868 708 L S
868 708 M 870 708 L S
870 708 M 871 708 L S
871 708 M 872 708 L S
872 708 M 873 708 L S
873 708 M 874 708 L S
874 708 M 876 708 L S
876 708 M 877 708 L S
877 708 M 878 708 L S
878 708 M 879 708 L S
879 708 M 880 708 L S
880 708 M 882 708 L S
882 708 M 883 708 L S
883 708 M 884 708 L S
884 708 M 885 708 L S
885 708 M 886 708 L S
886 708 M 887 708 L S
887 708 M 889 708 L S
889 708 M 890 708 L S
890 708 M 891 708 L S
891 708 M 892 708 L S
892 708 M 893 708 L S
893 708 M 895 708 L S
895 708 M 896 708 L S
896 708 M 897 708 L S
897 708 M 898 708 L S
898 708 M 899 708 L S
899 708 M 901 708 L S
901 708 M 902 708 L S
902 708 M 903 708 L S
903 708 M 904 708 L S
904 708 M 905 708 L S
905 708 M 907 708 L S
907 708 M 908 708 L S
908 708 M 909 708 L S
909 708 M 910 708 L S
910 708 M 911 708 L S
911 708 M 912 708 L S
912 708 M 914 708 L S
914 708 M 915 708 L S
915 708 M 916 708 L S
916 708 M 917 708 L S
917 708 M 918 707 L S
918 707 M 920 707 L S
920 707 M 921 707 L S
921 707 M 922 705 L S
922 705 M 923 700 L S
923 700 M 924 691 L S
924 691 M 926 674 L S
926 674 M 927 647 L S
927 647 M 928 609 L S
928 609 M 929 563 L S
929 563 M 930 514 L S
930 514 M 932 465 L S
932 465 M 933 419 L S
933 419 M 934 379 L S
934 379 M 935 343 L S
935 343 M 936 312 L S
936 312 M 937 285 L S
937 285 M 939 261 L S
939 261 M 940 240 L S
940 240 M 941 220 L S
941 220 M 942 204 L S
942 204 M 943 190 L S
943 190 M 945 178 L S
945 178 M 946 170 L S
946 170 M 947 164 L S
947 164 M 948 160 L S
948 160 M 949 158 L S
949 158 M 951 157 L S
951 157 M 952 156 L S
952 156 M 953 156 L S
953 156 M 954 156 L S
954 156 M 955 156 L S
955 156 M 957 156 L S
957 156 M 958 156 L S
958 156 M 959 156 L S
959 156 M 960 156 L S
960 156 M 961 156 L S
961 156 M 962 156 L S
962 156 M 964 156 L S
964 156 M 965 156 L S
965 156 M 966 156 L S
966 156 M 967 156 L S
967 156 M 968 156 L S
968 156 M 970 156 L S
970 156 M 971 156 L S
971 156 M 972 156 L S
102 156 M 102 156 L S
102 156 M 102 156 L S
102 156 M 103 156 L S
103 156 M 104 156 L S
104 156 M 106 156 L S
106 156 M 107 156 L S
107 156 M 108 156 L S
108 156 M 109 156 L S
109 156 M 110 156 L S
110 156 M 112 156 L S
112 156 M 113 156 L S
113 156 M 114 156 L S
114 156 M 115 156 L S
115 156 M 116 156 L S
116 156 M 117 156 L S
117 156 M 119 156 L S
119 156 M 120 156 L S
120 156 M 121 156 L S
121 156 M 122 156 L S
122 156 M 123 156 L S
123 156 M 125 157 L S
125 157 M 126 158 L S
126 158 M 127 161 L S
127 161 M 128 165 L S
128 165 M 129 172 L S
129 172 M 131 181 L S
131 181 M 132 193 L S
132 193 M 133 207 L S
133 207 M 134 225 L S
134 225 M 135 245 L S
135 245 M 137 267 L S
137 267 M 138 291 L S
138 291 M 139 319 L S
139 319 M 140 351 L S
140 351 M 141 388 L S
141 388 M 142 429 L S
142 429 M 144 476 L S
144 476 M 145 526 L S
145 526 M 146 575 L S
146 575 M 147 619 L S
147 619 M 148 654 L S
148 654 M 150 679 L S
150 679 M 151 694 L S
151 694 M 152 702 L S
152 702 M 153 705 L S
153 705 M 154 707 L S
154 707 M 156 707 L S
156 707 M 157 708 L S
157 708 M 158 708 L S
158 708 M 159 708 L S
159 708 M 160 708 L S
160 708 M 162 708 L S
162 708 M 163 708 L S
163 708 M 164 708 L S
164 708 M 165 708 L S
165 708 M 166 708 L S
166 708 M 167 708 L S
167 708 M 169 708 L S
169 708 M 170 708 L S
170 708 M 171 708 L S
171 708 M 172 708 L S
172 708 M 173 708 L S
173 708 M 175 708 L S
175 708 M 176 708 L S
176 708 M 177 708 L S
177 708 M 178 708 L S
178 708 M 179 708 L S
179 708 M 181 708 L S
181 708 M 182 708 L S
182 708 M 183 708 L S
183 708 M 184 708 L S
184 708 M 185 708 L S
185 708 M 187 708 L S
187 708 M 188 708 L S
188 708 M 189 708 L S
189 708 M 190 708 L S
190 708 M 191 708 L S
191 708 M 192 708 L S
192 708 M 194 708 L S
194 708 M 195 708 L S
195 708 M 196 708 L S
196 708 M 197 708 L S
197 708 M 198 708 L S
198 708 M 200 708 L S
200 708 M 201 708 L S
201 708 M 202 708 L S
202 708 M 203 708 L S
203 708 M 204 708 L S
204 708 M 206 708 L S
206 708 M 207 708 L S
207 708 M 208 708 L S
208 708 M 209 708 L S
209 708 M 210 708 L S
210 708 M 212 708 L S
212 708 M 213 708 L S
213 708 M 214 708 L S
214 708 M 215 708 L S
215 708 M 216 708 L S
216 708 M 217 708 L S
217 708 M 219 708 L S
219 708 M 220 708 L S
220 708 M 221 708 L S
221 708 M 222 708 L S
222 708 M 223 709 L S
223 709 M 225 710 L S
225 710 M 226 712 L S
226 712 M 227 716 L S
227 716 M 228 721 L S
228 721 M 229 728 L S
229 728 M 231 735 L S
231 735 M 232 740 L S
232 740 M 233 739 L S
233 739 M 234 730 L S
234 730 M 235 714 L S
235 714 M 237 692 L S
237 692 M 238 669 L S
238 669 M 239 651 L S
239 651 M 240 642 L S
240 642 M 241 643 L S
241 643 M 242 654 L S
242 654 M 244 673 L S
244 673 M 245 695 L S
245 695 M 246 716 L S
246 716 M 247 731 L S
247 731 M 248 738 L S
248 738 M 250 737 L S
250 737 M 251 732 L S
251 732 M 252 725 L S
252 725 M 253 718 L S
253 718 M 254 713 L S
254 713 M 256 710 L S
256 710 M 257 708 L S
257 708 M 258 707 L S
258 707 M 259 706 L S
259 706 M 260 706 L S
260 706 M 262 706 L S
262 706 M 263 706 L S
263 706 M 264 706 L S
264 706 M 265 706 L S
265 706 M 266 706 L S
266 706 M 267 706 L S
267 706 M 269 706 L S
269 706 M 270 706 L S
270 706 M 271 706 L S
271 706 M 272 706 L S
272 706 M 273 706 L S
273 706 M 275 706 L S
275 706 M 276 706 L S
276 706 M 277 706 L S
277 706 M 278 706 L S
278 706 M 279 706 L S
279 706 M 281 706 L S
281 706 M 282 706 L S
282 706 M 283 706 L S
283 706 M 284 706 L S
284 706 M 285 706 L S
285 706 M 287 706 L S
287 706 M 288 706 L S
288 706 M 289 706 L S
289 706 M 290 706 L S
290 706 M 291 706 L S
291 706 M 292 706 L S
292 706 M 294 706 L S
294 706 M 295 706 L S
295 706 M 296 706 L S
296 706 M 297 706 L S
297 706 M 298 706 L S
298 706 M 300 706 L S
300 706 M 301 706 L S
301 706 M 302 706 L S
302 706 M 303 706 L S
303 706 M 304 706 L S
304 706 M 306 706 L S
306 706 M 307 706 L S
307 706 M 308 706 L S
308 706 M 309 706 L S
309 706 M 310 706 L S
310 706 M 312 706 L S
312 706 M 313 706 L S
313 706 M 314 706 L S
314 706 M 315 706 L S
315 706 M 316 706 L S
316 706 M 317 706 L S
317 706 M 319 706 L S
319 706 M 320 706 L S
320 706 M 321 706 L S
321 706 M 322 706 L S
322 706 M 323 705 L S
323 705 M 325 705 L S
325 705 M 326 705 L S
326 705 M 327 705 L S
327 705 M 328 705 L S
328 705 M 329 705 L S
329 705 M 331 705 L S
331 705 M 332 705 L S
332 705 M 333 705 L S
333 705 M 334 705 L S
334 705 M 335 705 L S
335 705 M 337 705 L S
337 705 M 338 705 L S
338 705 M 339 705 L S
339 705 M 340 705 L S
340 705 M 341 705 L S
341 705 M 342 705 L S
342 705 M 344 705 L S
344 705 M 345 705 L S
345 705 M 346 705 L S
346 705 M 347 705 L S
347 705 M 348 705 L S
348 705 M 350 705 L S
350 705 M 351 705 L S
351 705 M 352 705 L S
352 705 M 353 705 L S
353 705 M 354 705 L S
354 705 M 356 706 L S
356 706 M 357 706 L S
357 706 M 358 706 L S
358 706 M 359 706 L S
359 706 M 360 706 L S
360 706 M 362 706 L S
362 706 M 363 706 L S
363 706 M 364 706 L S
364 706 M 365 706 L S
365 706 M 366 706 L S
366 706 M 367 706 L S
367 706 M 369 706 L S
369 706 M 370 706 L S
370 706 M 371 706 L S
371 706 M 372 706 L S
372 706 M 373 706 L S
373 706 M 375 706 L S
375 706 M 376 706 L S
376 706 M 377 706 L S
377 706 M 378 706 L S
378 706 M 379 706 L S
379 706 M 381 706 L S
381 706 M 382 706 L S
382 706 M 383 706 L S
383 706 M 384 706 L S
384 706 M 385 706 L S
385 706 M 387 706 L S
387 706 M 388 706 L S
388 706 M 389 706 L S
389 706 M 390 706 L S
390 706 M 391 706 L S
391 706 M 392 706 L S
392 706 M 394 706 L S
394 706 M 395 706 L S
395 706 M 396 706 L S
396 706 M 397 706 L S
397 706 M 398 706 L S
398 706 M 400 706 L S
400 706 M 401 706 L S
401 706 M 402 706 L S
402 706 M 403 706 L S
403 706 M 404 706 L S
404 706 M 406 706 L S
406 706 M 407 706 L S
407 706 M 408 706 L S
408 706 M 409 706 L S
409 706 M 410 706 L S
410 706 M 412 706 L S
412 706 M 413 706 L S
413 706 M 414 706 L S
414 706 M 415 706 L S
415 706 M 416 706 L S
416 706 M 417 706 L S
417 706 M 419 706 L S
419 706 M 420 706 L S
420 706 M 421 707 L S
421 707 M 422 708 L S
422 708 M 423 710 L S
423 710 M 425 713 L S
425 713 M 426 718 L S
426 718 M 427 724 L S
427 724 M 428 731 L S
428 731 M 429 737 L S
429 737 M 431 738 L S
431 738 M 432 731 L S
432 731 M 433 717 L S
433 717 M 434 696 L S
434 696 M 435 674 L S
435 674 M 437 655 L S
437 655 M 438 643 L S
438 643 M 439 642 L S
439 642 M 440 651 L S
440 651 M 441 668 L S
441 668 M 442 691 L S
442 691 M 444 713 L S
444 713 M 445 730 L S
445 730 M 446 739 L S
446 739 M 447 740 L S
447 740 M 448 735 L S
448 735 M 450 729 L S
450 729 M 451 722 L S
451 722 M 452 716 L S
452 716 M 453 712 L S
453 712 M 454 710 L S
454 710 M 456 709 L S
456 709 M 457 708 L S
457 708 M 458 708 L S
458 708 M 459 708 L S
459 708 M 460 708 L S
460 708 M 462 708 L S
462 708 M 463 708 L S
463 708 M 464 708 L S
464 708 M 465 708 L S
465 708 M 466 708 L S
466 708 M 467 708 L S
467 708 M 469 708 L S
469 708 M 470 708 L S
470 708 M 471 708 L S
471 708 M 472 708 L S
472 708 M 473 708 L S
473 708 M 475 708 L S
475 708 M 476 708 L S
476 708 M 477 708 L S
477 708 M 478 708 L S
478 708 M 479 708 L S
479 708 M 481 708 L S
481 708 M 482 708 L S
482 708 M 483 708 L S
483 708 M 484 708 L S
484 708 M 485 708 L S
485 708 M 487 708 L S
487 708 M 488 708 L S
488 708 M 489 708 L S
489 708 M 490 708 L S
490 708 M 491 708 L S
491 708 M 492 708 L S
492 708 M 494 708 L S
494 708 M 495 708 L S
495 708 M 496 708 L S
496 708 M 497 708 L S
497 708 M 498 708 L S
498 708 M 500 708 L S
500 708 M 501 708 L S
501 708 M 502 708 L S
502 708 M 503 708 L S
503 708 M 504 708 L S
504 708 M 506 708 L S
506 708 M 507 708 L S
507 708 M 508 708 L S
508 708 M 509 708 L S
509 708 M 510 708 L S
510 708 M 512 708 L S
512 708 M 513 708 L S
513 708 M 514 708 L S
514 708 M 515 708 L S
515 708 M 516 708 L S
516 708 M 517 708 L S
517 708 M 519 708 L S
519 708 M 520 708 L S
520 708 M 521 708 L S
521 708 M 522 708 L S
522 708 M 523 708 L S
523 708 M 525 708 L S
525 708 M 526 708 L S
526 708 M 527 708 L S
527 708 M 528 708 L S
528 708 M 529 708 L S
529 708 M 531 708 L S
531 708 M 532 708 L S
532 708 M 533 708 L S
533 708 M 534 708 L S
534 708 M 535 708 L S
535 708 M 537 708 L S
537 708 M 537 708 L S
537 708 M 539 708 L S
539 708 M 540 708 L S
540 708 M 541 708 L S
541 708 M 542 708 L S
542 708 M 543 708 L S
543 708 M 545 708 L S
545 708 M 546 708 L S
546 708 M 547 708 L S
547 708 M 548 708 L S
548 708 M 549 708 L S
549 708 M 551 708 L S
551 708 M 552 708 L S
552 708 M 553 708 L S
553 708 M 554 708 L S
554 708 M 555 708 L S
555 708 M 556 708 L S
556 708 M 558 708 L S
558 708 M 559 708 L S
559 708 M 560 708 L S
560 708 M 561 708 L S
561 708 M 562 708 L S
562 708 M 564 708 L S
564 708 M 565 708 L S
565 708 M 566 708 L S
566 708 M 567 708 L S
567 708 M 568 708 L S
568 708 M 570 708 L S
570 708 M 571 708 L S
571 708 M 572 708 L S
572 708 M 573 708 L S
573 708 M 574 708 L S
574 708 M 576 708 L S
576 708 M 577 708 L S
577 708 M 578 708 L S
578 708 M 579 708 L S
579 708 M 580 708 L S
580 708 M 581 708 L S
581 708 M 583 708 L S
583 708 M 584 708 L S
584 708 M 585 708 L S
585 708 M 586 708 L S
586 708 M 587 708 L S
587 708 M 589 708 L S
589 708 M 590 708 L S
590 708 M 591 708 L S
591 708 M 592 708 L S
592 708 M 593 708 L S
593 708 M 595 708 L S
595 708 M 596 708 L S
596 708 M 597 708 L S
597 708 M 598 708 L S
598 708 M 599 708 L S
599 708 M 601 708 L S
601 708 M 602 708 L S
602 708 M 603 708 L S
603 708 M 604 708 L S
604 708 M 605 708 L S
605 708 M 607 708 L S
607 708 M 608 708 L S
608 708 M 609 708 L S
609 708 M 610 708 L S
610 708 M 611 708 L S
611 708 M 612 708 L S
612 708 M 614 708 L S
614 708 M 615 708 L S
615 708 M 616 708 L S
616 708 M 617 708 L S
617 708 M 618 708 L S
618 708 M 620 709 L S
620 709 M 621 711 L S
621 711 M 622 713 L S
622 713 M 623 717 L S
623 717 M 624 723 L S
624 723 M 626 730 L S
626 730 M 627 737 L S
627 737 M 628 740 L S
628 740 M 629 737 L S
629 737 M 630 726 L S
630 726 M 632 708 L S
632 708 M 633 685 L S
633 685 M 634 664 L S
634 664 M 635 648 L S
635 648 M 636 641 L S
636 641 M 637 645 L S
637 645 M 639 658 L S
639 658 M 640 679 L S
640 679 M 641 701 L S
641 701 M 642 721 L S
642 721 M 643 734 L S
643 734 M 645 738 L S
645 738 M 646 736 L S
646 736 M 647 730 L S
647 730 M 648 723 L S
648 723 M 649 717 L S
649 717 M 651 712 L S
651 712 M 652 709 L S
652 709 M 653 707 L S
653 707 M 654 706 L S
654 706 M 655 706 L S
655 706 M 657 706 L S
657 706 M 658 706 L S
658 706 M 659 706 L S
659 706 M 660 706 L S
660 706 M 661 706 L S
661 706 M 662 706 L S
662 706 M 664 706 L S
664 706 M 665 706 L S
665 706 M 666 706 L S
666 706 M 667 706 L S
667 706 M 668 706 L S
668 706 M 670 706 L S
670 706 M 671 706 L S
671 706 M 672 706 L S
672 706 M 673 706 L S
673 706 M 674 706 L S
674 706 M 676 706 L S
676 706 M 677 706 L S
677 706 M 678 706 L S
678 706 M 679 706 L S
679 706 M 680 706 L S
680 706 M 682 706 L S
682 706 M 683 706 L S
683 706 M 684 706 L S
684 706 M 685 706 L S
685 706 M 686 706 L S
686 706 M 687 706 L S
687 706 M 689 706 L S
689 706 M 690 706 L S
690 706 M 691 706 L S
691 706 M 692 706 L S
692 706 M 693 706 L S
693 706 M 695 706 L S
695 706 M 696 706 L S
696 706 M 697 706 L S
697 706 M 698 706 L S
698 706 M 699 706 L S
699 706 M 701 706 L S
701 706 M 702 706 L S
702 706 M 703 706 L S
703 706 M 704 706 L S
704 706 M 705 706 L S
705 706 M 707 706 L S
707 706 M 708 706 L S
708 706 M 709 706 L S
709 706 M 710 706 L S
710 706 M 711 706 L S
711 706 M 712 706 L S
712 706 M 714 706 L S
714 706 M 715 706 L S
715 706 M 716 706 L S
716 706 M 717 706 L S
717 706 M 718 706 L S
718 706 M 720 706 L S
720 706 M 721 705 L S
721 705 M 722 705 L S
722 705 M 723 705 L S
723 705 M 724 705 L S
724 705 M 726 705 L S
726 705 M 727 705 L S
727 705 M 728 705 L S
728 705 M 729 705 L S
729 705 M 730 705 L S
730 705 M 732 705 L S
732 705 M 733 705 L S
733 705 M 734 705 L S
734 705 M 735 705 L S
735 705 M 736 705 L S
736 705 M 737 705 L S
737 705 M 739 705 L S
739 705 M 740 705 L S
740 705 M 741 705 L S
741 705 M 742 705 L S
742 705 M 743 705 L S
743 705 M 745 705 L S
745 705 M 746 705 L S
746 705 M 747 705 L S
747 705 M 748 705 L S
748 705 M 749 705 L S
749 705 M 751 705 L S
751 705 M 752 706 L S
752 706 M 753 706 L S
753 706 M 754 706 L S
754 706 M 755 706 L S
755 706 M 757 706 L S
757 706 M 758 706 L S
758 706 M 759 706 L S
759 706 M 760 706 L S
760 706 M 761 706 L S
761 706 M 762 706 L S
762 706 M 764 706 L S
764 706 M 765 706 L S
765 706 M 766 706 L S
766 706 M 767 706 L S
767 706 M 768 706 L S
768 706 M 770 706 L S
770 706 M 771 706 L S
771 706 M 772 706 L S
772 706 M 773 706 L S
773 706 M 774 706 L S
774 706 M 776 706 L S
776 706 M 777 706 L S
777 706 M 778 706 L S
778 706 M 779 706 L S
779 706 M 780 706 L S
780 706 M 782 706 L S
782 706 M 783 706 L S
783 706 M 784 706 L S
784 706 M 785 706 L S
785 706 M 786 706 L S
786 706 M 787 706 L S
787 706 M 789 706 L S
789 706 M 790 706 L S
790 706 M 791 706 L S
791 706 M 792 706 L S
792 706 M 793 706 L S
793 706 M 795 706 L S
795 706 M 796 706 L S
796 706 M 797 706 L S
797 706 M 798 706 L S
798 706 M 799 706 L S
799 706 M 801 706 L S
801 706 M 802 706 L S
802 706 M 803 706 L S
803 706 M 804 706 L S
804 706 M 805 706 L S
805 706 M 807 706 L S
807 706 M 808 706 L S
808 706 M 809 706 L S
809 706 M 810 706 L S
810 706 M 811 706 L S
811 706 M 812 706 L S
812 706 M 814 706 L S
814 706 M 815 706 L S
815 706 M 816 706 L S
816 706 M 817 707 L S
817 707 M 818 708 L S
818 708 M 820 710 L S
820 710 M 821 714 L S
821 714 M 822 720 L S
822 720 M 823 726 L S
823 726 M 824 733 L S
824 733 M 826 738 L S
826 738 M 827 737 L S
827 737 M 828 728 L S
828 728 M 829 712 L S
829 712 M 830 690 L S
830 690 M 832 668 L S
832 668 M 833 650 L S
833 650 M 834 642 L S
834 642 M 835 643 L S
835 643 M 836 655 L S
836 655 M 837 674 L S
837 674 M 839 697 L S
839 697 M 840 718 L S
840 718 M 841 733 L S
841 733 M 842 740 L S
842 740 M 843 739 L S
843 739 M 845 734 L S
845 734 M 846 727 L S
846 727 M 847 720 L S
847 720 M 848 715 L S
848 715 M 849 712 L S
849 712 M 851 710 L S
851 710 M 852 709 L S
852 709 M 853 708 L S
853 708 M 854 708 L S
854 708 M 855 708 L S
855 708 M 857 708 L S
857 708 M 858 708 L S
858 708 M 859 708 L S
859 708 M 860 708 L S
860 708 M 861 708 L S
861 708 M 862 708 L S
862 708 M 864 708 L S
864 708 M 865 708 L S
865 708 M 866 708 L S
866 708 M 867 708 L S
867 708 M 868 708 L S
868 708 M 870 708 L S
870 708 M 871 708 L S
871 708 M 872 708 L S
872 708 M 873 708 L S
873 708 M 874 708 L S
874 708 M 876 708 L S
876 708 M 877 708 L S
877 708 M 878 708 L S
878 708 M 879 708 L S
879 708 M 880 708 L S
880 708 M 882 708 L S
882 708 M 883 708 L S
883 708 M 884 708 L S
884 708 M 885 708 L S
885 708 M 886 708 L S
886 708 M 887 708 L S
887 708 M 889 708 L S
889 708 M 890 708 L S
890 708 M 891 708 L S
891 708 M 892 708 L S
892 708 M 893 708 L S
893 708 M 895 708 L S
895 708 M 896 708 L S
896 708 M 897 708 L S
897 708 M 898 708 L S
898 708 M 899 708 L S
899 708 M 901 708 L S
901 708 M 902 708 L S
902 708 M 903 708 L S
903 708 M 904 708 L S
904 708 M 905 708 L S
905 708 M 907 708 L S
907 708 M 908 708 L S
908 708 M 909 708 L S
909 708 M 910 708 L S
910 708 M 911 708 L S
911 708 M 912 708 L S
912 708 M 914 708 L S
914 708 M 915 708 L S
915 708 M 916 708 L S
916 708 M 917 708 L S
917 708 M 918 708 L S
918 708 M 920 707 L S
920 707 M 921 707 L S
921 707 M 922 705 L S
922 705 M 923 700 L S
923 700 M 924 691 L S
924 691 M 926 674 L S
926 674 M 927 647 L S
927 647 M 928 609 L S
928 609 M 929 563 L S
929 563 M 930 514 L S
930 514 M 932 464 L S
932 464 M 933 419 L S
933 419 M 934 378 L S
934 378 M 935 343 L S
935 343 M 936 312 L S
936 312 M 937 285 L S
937 285 M 939 261 L S
939 261 M 940 240 L S
940 240 M 941 220 L S
941 220 M 942 204 L S
942 204 M 943 190 L S
943 190 M 945 178 L S
945 178 M 946 170 L S
946 170 M 947 164 L S
947 164 M 948 160 L S
948 160 M 949 158 L S
949 158 M 951 157 L S
951 157 M 952 156 L S
952 156 M 953 156 L S
953 156 M 954 156 L S
954 156 M 955 156 L S
955 156 M 957 156 L S
957 156 M 958 156 L S
958 156 M 959 156 L S
959 156 M 960 156 L S
960 156 M 961 156 L S
961 156 M 962 156 L S
962 156 M 964 156 L S
964 156 M 965 156 L S
965 156 M 966 156 L S
966 156 M 967 156 L S
967 156 M 968 156 L S
968 156 M 970 156 L S
970 156 M 971 156 L S
971 156 M 972 156 L S
102 156 M 102 156 L S
102 156 M 102 156 L S
102 156 M 103 156 L S
103 156 M 104 156 L S
104 156 M 106 156 L S
106 156 M 107 156 L S
107 156 M 108 156 L S
108 156 M 109 156 L S
109 156 M 110 156 L S
110 156 M 112 156 L S
112 156 M 113 156 L S
113 156 M 114 156 L S
114 156 M 115 156 L S
115 156 M 116 156 L S
116 156 M 117 156 L S
117 156 M 119 156 L S
119 156 M 120 156 L S
120 156 M 121 156 L S
121 156 M 122 156 L S
122 156 M 123 156 L S
123 156 M 125 157 L S
125 157 M 126 158 L S
126 158 M 127 161 L S
127 161 M 128 165 L S
128 165 M 129 172 L S
129 172 M 131 181 L S
131 181 M 132 193 L S
132 193 M 133 207 L S
133 207 M 134 225 L S
134 225 M 135 244 L S
135 244 M 137 267 L S
137 267 M 138 291 L S
138 291 M 139 319 L S
139 319 M 140 351 L S
140 351 M 141 387 L S
141 387 M 142 429 L S
142 429 M 144 476 L S
144 476 M 145 525 L S
145 525 M 146 575 L S
146 575 M 147 619 L S
147 619 M 148 654 L S
148 654 M 150 678 L S
150 678 M 151 693 L S
151 693 M 152 701 L S
152 701 M 153 705 L S
153 705 M 154 707 L S
154 707 M 156 707 L S
156 707 M 157 707 L S
157 707 M 158 707 L S
158 707 M 159 707 L S
159 707 M 160 707 L S
160 707 M 162 707 L S
162 707 M 163 707 L S
163 707 M 164 707 L S
164 707 M 165 707 L S
165 707 M 166 707 L S
166 707 M 167 707 L S
167 707 M 169 707 L S
169 707 M 170 707 L S
170 707 M 171 707 L S
171 707 M 172 707 L S
172 707 M 173 707 L S
173 707 M 175 707 L S
175 707 M 176 707 L S
176 707 M 177 707 L S
177 707 M 178 707 L S
178 707 M 179 707 L S
179 707 M 181 707 L S
181 707 M 182 707 L S
182 707 M 183 707 L S
183 707 M 184 707 L S
184 707 M 185 707 L S
185 707 M 187 707 L S
187 707 M 188 707 L S
188 707 M 189 707 L S
189 707 M 190 707 L S
190 707 M 191 707 L S
191 707 M 192 707 L S
192 707 M 194 707 L S
194 707 M 195 707 L S
195 707 M 196 707 L S
196 707 M 197 707 L S
197 707 M 198 707 L S
198 707 M 200 707 L S
200 707 M 201 707 L S
201 707 M 202 707 L S
202 707 M 203 707 L S
203 707 M 204 707 L S
204 707 M 206 707 L S
206 707 M 207 707 L S
207 707 M 208 707 L S
208 707 M 209 707 L S
209 707 M 210 707 L S
210 707 M 212 707 L S
212 707 M 213 707 L S
213 707 M 214 707 L S
214 707 M 215 707 L S
215 707 M 216 707 L S
216 707 M 217 708 L S
217 708 M 219 708 L S
219 708 M 220 708 L S
220 708 M 221 708 L S
221 708 M 222 708 L S
222 708 M 223 708 L S
223 708 M 225 710 L S
225 710 M 226 712 L S
226 712 M 227 716 L S
227 716 M 228 721 L S
228 721 M 229 728 L S
229 728 M 231 735 L S
231 735 M 232 739 L S
232 739 M 233 738 L S
233 738 M 234 730 L S
234 730 M 235 714 L S
235 714 M 237 692 L S
237 692 M 238 669 L S
238 669 M 239 651 L S
239 651 M 240 642 L S
240 642 M 241 643 L S
241 643 M 242 654 L S
242 654 M 244 673 L S
244 673 M 245 695 L S
245 695 M 246 716 L S
246 716 M 247 731 L S
247 731 M 248 738 L S
248 738 M 250 737 L S
250 737 M 251 732 L S
251 732 M 252 725 L S
252 725 M 253 719 L S
253 719 M 254 714 L S
254 714 M 256 710 L S
256 710 M 257 708 L S
257 708 M 258 707 L S
258 707 M 259 707 L S
259 707 M 260 706 L S
260 706 M 262 706 L S
262 706 M 263 706 L S
263 706 M 264 706 L S
264 706 M 265 706 L S
265 706 M 266 706 L S
266 706 M 267 706 L S
267 706 M 269 706 L S
269 706 M 270 706 L S
270 706 M 271 706 L S
271 706 M 272 706 L S
272 706 M 273 706 L S
273 706 M 275 706 L S
275 706 M 276 706 L S
276 706 M 277 706 L S
277 706 M 278 706 L S
278 706 M 279 706 L S
279 706 M 281 706 L S
281 706 M 282 706 L S
282 706 M 283 706 L S
283 706 M 284 706 L S
284 706 M 285 706 L S
285 706 M 287 706 L S
287 706 M 288 706 L S
288 706 M 289 706 L S
289 706 M 290 706 L S
290 706 M 291 706 L S
291 706 M 292 706 L S
292 706 M 294 706 L S
294 706 M 295 706 L S
295 706 M 296 706 L S
296 706 M 297 706 L S
297 706 M 298 706 L S
298 706 M 300 706 L S
300 706 M 301 706 L S
301 706 M 302 706 L S
302 706 M 303 706 L S
303 706 M 304 706 L S
304 706 M 306 706 L S
306 706 M 307 706 L S
307 706 M 308 706 L S
308 706 M 309 706 L S
309 706 M 310 706 L S
310 706 M 312 706 L S
312 706 M 313 706 L S
313 706 M 314 706 L S
314 706 M 315 706 L S
315 706 M 316 706 L S
316 706 M 317 706 L S
317 706 M 319 706 L S
319 706 M 320 706 L S
320 706 M 321 706 L S
321 706 M 322 706 L S
322 706 M 323 706 L S
323 706 M 325 706 L S
325 706 M 326 706 L S
326 706 M 327 706 L S
327 706 M 328 706 L S
328 706 M 329 706 L S
329 706 M 331 706 L S
331 706 M 332 706 L S
332 706 M 333 706 L S
333 706 M 334 706 L S
334 706 M 335 706 L S
335 706 M 337 706 L S
337 706 M 338 706 L S
338 706 M 339 706 L S
339 706 M 340 706 L S
340 706 M 341 706 L S
341 706 M 342 706 L S
342 706 M 344 706 L S
344 706 M 345 706 L S
345 706 M 346 706 L S
346 706 M 347 706 L S
347 706 M 348 706 L S
348 706 M 350 706 L S
350 706 M 351 706 L S
351 706 M 352 706 L S
352 706 M 353 706 L S
353 706 M 354 706 L S
354 706 M 356 706 L S
356 706 M 357 706 L S
357 706 M 358 706 L S
358 706 M 359 706 L S
359 706 M 360 706 L S
360 706 M 362 706 L S
362 706 M 363 706 L S
363 706 M 364 706 L S
364 706 M 365 706 L S
365 706 M 366 706 L S
366 706 M 367 706 L S
367 706 M 369 706 L S
369 706 M 370 706 L S
370 706 M 371 706 L S
371 706 M 372 706 L S
372 706 M 373 706 L S
373 706 M 375 706 L S
375 706 M 376 706 L S
376 706 M 377 706 L S
377 706 M 378 706 L S
378 706 M 379 706 L S
379 706 M 381 706 L S
381 706 M 382 706 L S
382 706 M 383 706 L S
383 706 M 384 706 L S
384 706 M 385 706 L S
385 706 M 387 706 L S
387 706 M 388 706 L S
388 706 M 389 706 L S
389 706 M 390 706 L S
390 706 M 391 706 L S
391 706 M 392 706 L S
392 706 M 394 706 L S
394 706 M 395 706 L S
395 706 M 396 706 L S
396 706 M 397 706 L S
397 706 M 398 706 L S
398 706 M 400 706 L S
400 706 M 401 706 L S
401 706 M 402 706 L S
402 706 M 403 706 L S
403 706 M 404 706 L S
404 706 M 406 706 L S
406 706 M 407 706 L S
407 706 M 408 706 L S
408 706 M 409 706 L S
409 706 M 410 706 L S
410 706 M 412 706 L S
412 706 M 413 706 L S
413 706 M 414 706 L S
414 706 M 415 706 L S
415 706 M 416 706 L S
416 706 M 417 706 L S
417 706 M 419 706 L S
419 706 M 420 707 L S
420 707 M 421 707 L S
421 707 M 422 708 L S
422 708 M 423 710 L S
423 710 M 425 713 L S
425 713 M 426 718 L S
426 718 M 427 725 L S
427 725 M 428 732 L S
428 732 M 429 737 L S
429 737 M 431 738 L S
431 738 M 432 732 L S
432 732 M 433 717 L S
433 717 M 434 696 L S
434 696 M 435 674 L S
435 674 M 437 655 L S
437 655 M 438 643 L S
438 643 M 439 642 L S
439 642 M 440 651 L S
440 651 M 441 668 L S
441 668 M 442 690 L S
442 690 M 444 713 L S
444 713 M 445 729 L S
445 729 M 446 738 L S
446 738 M 447 739 L S
447 739 M 448 735 L S
448 735 M 450 728 L S
450 728 M 451 721 L S
451 721 M 452 716 L S
452 716 M 453 712 L S
453 712 M 454 710 L S
454 710 M 456 709 L S
456 709 M 457 708 L S
457 708 M 458 708 L S
458 708 M 459 708 L S
459 708 M 460 708 L S
460 708 M 462 707 L S
462 707 M 463 707 L S
463 707 M 464 707 L S
464 707 M 465 707 L S
465 707 M 466 707 L S
466 707 M 467 707 L S
467 707 M 469 707 L S
469 707 M 470 707 L S
470 707 M 471 707 L S
471 707 M 472 707 L S
472 707 M 473 707 L S
473 707 M 475 707 L S
475 707 M 476 707 L S
476 707 M 477 707 L S
477 707 M 478 707 L S
478 707 M 479 707 L S
479 707 M 481 707 L S
481 707 M 482 707 L S
482 707 M 483 707 L S
483 707 M 484 707 L S
484 707 M 485 707 L S
485 707 M 487 707 L S
487 707 M 488 707 L S
488 707 M 489 707 L S
489 707 M 490 707 L S
490 707 M 491 707 L S
491 707 M 492 707 L S
492 707 M 494 707 L S
494 707 M 495 707 L S
495 707 M 496 707 L S
496 707 M 497 707 L S
497 707 M 498 707 L S
498 707 M 500 707 L S
500 707 M 501 707 L S
501 707 M 502 707 L S
502 707 M 503 707 L S
503 707 M 504 707 L S
504 707 M 506 707 L S
506 707 M 507 707 L S
507 707 M 508 707 L S
508 707 M 509 707 L S
509 707 M 510 707 L S
510 707 M 512 707 L S
512 707 M 513 707 L S
513 707 M 514 707 L S
514 707 M 515 707 L S
515 707 M 516 707 L S
516 707 M 517 707 L S
517 707 M 519 707 L S
519 707 M 520 707 L S
520 707 M 521 707 L S
521 707 M 522 707 L S
522 707 M 523 707 L S
523 707 M 525 707 L S
525 707 M 526 707 L S
526 707 M 527 707 L S
527 707 M 528 707 L S
528 707 M 529 707 L S
529 707 M 531 707 L S
531 707 M 532 707 L S
532 707 M 533 707 L S
533 707 M 534 707 L S
534 707 M 535 707 L S
535 707 M 537 707 L S
537 707 M 537 707 L S
537 707 M 539 707 L S
539 707 M 540 707 L S
540 707 M 541 707 L S
541 707 M 542 707 L S
542 707 M 543 707 L S
543 707 M 545 707 L S
545 707 M 546 707 L S
546 707 M 547 707 L S
547 707 M 548 707 L S
548 707 M 549 707 L S
549 707 M 551 707 L S
551 707 M 552 707 L S
552 707 M 553 707 L S
553 707 M 554 707 L S
554 707 M 555 707 L S
555 707 M 557 707 L S
557 707 M 558 707 L S
558 707 M 559 707 L S
559 707 M 560 707 L S
560 707 M 561 707 L S
561 707 M 562 707 L S
562 707 M 564 707 L S
564 707 M 565 707 L S
565 707 M 566 707 L S
566 707 M 567 707 L S
567 707 M 568 707 L S
568 707 M 570 707 L S
570 707 M 571 707 L S
571 707 M 572 707 L S
572 707 M 573 707 L S
573 707 M 574 707 L S
574 707 M 576 707 L S
576 707 M 577 707 L S
577 707 M 578 707 L S
578 707 M 579 707 L S
579 707 M 580 707 L S
580 707 M 582 707 L S
582 707 M 583 707 L S
583 707 M 584 707 L S
584 707 M 585 707 L S
585 707 M 586 707 L S
586 707 M 587 707 L S
587 707 M 589 707 L S
589 707 M 590 707 L S
590 707 M 591 707 L S
591 707 M 592 707 L S
592 707 M 593 707 L S
593 707 M 595 707 L S
595 707 M 596 707 L S
596 707 M 597 707 L S
597 707 M 598 707 L S
598 707 M 599 707 L S
599 707 M 601 707 L S
601 707 M 602 707 L S
602 707 M 603 707 L S
603 707 M 604 707 L S
604 707 M 605 707 L S
605 707 M 607 707 L S
607 707 M 608 707 L S
608 707 M 609 707 L S
609 707 M 610 707 L S
610 707 M 611 707 L S
611 707 M 612 707 L S
612 707 M 614 707 L S
614 707 M 615 708 L S
615 708 M 616 708 L S
616 708 M 617 708 L S
617 708 M 618 708 L S
618 708 M 620 709 L S
620 709 M 621 710 L S
621 710 M 622 713 L S
622 713 M 623 717 L S
623 717 M 624 723 L S
624 723 M 626 730 L S
626 730 M 627 736 L S
627 736 M 628 740 L S
628 740 M 629 737 L S
629 737 M 630 726 L S
630 726 M 632 708 L S
632 708 M 633 685 L S
633 685 M 634 664 L S
634 664 M 635 648 L S
635 648 M 636 641 L S
636 641 M 637 645 L S
637 645 M 639 659 L S
639 659 M 640 679 L S
640 679 M 641 702 L S
641 702 M 642 721 L S
642 721 M 643 734 L S
643 734 M 645 739 L S
645 739 M 646 736 L S
646 736 M 647 730 L S
647 730 M 648 723 L S
648 723 M 649 717 L S
649 717 M 651 712 L S
651 712 M 652 709 L S
652 709 M 653 708 L S
653 708 M 654 707 L S
654 707 M 655 706 L S
655 706 M 657 706 L S
657 706 M 658 706 L S
658 706 M 659 706 L S
659 706 M 660 706 L S
660 706 M 661 706 L S
661 706 M 662 706 L S
662 706 M 664 706 L S
664 706 M 665 706 L S
665 706 M 666 706 L S
666 706 M 667 706 L S
667 706 M 668 706 L S
668 706 M 670 706 L S
670 706 M 671 706 L S
671 706 M 672 706 L S
672 706 M 673 706 L S
673 706 M 674 706 L S
674 706 M 676 706 L S
676 706 M 677 706 L S
677 706 M 678 706 L S
678 706 M 679 706 L S
679 706 M 680 706 L S
680 706 M 682 706 L S
682 706 M 683 706 L S
683 706 M 684 706 L S
684 706 M 685 706 L S
685 706 M 686 706 L S
686 706 M 687 706 L S
687 706 M 689 706 L S
689 706 M 690 706 L S
690 706 M 691 706 L S
691 706 M 692 706 L S
692 706 M 693 706 L S
693 706 M 695 706 L S
695 706 M 696 706 L S
696 706 M 697 706 L S
697 706 M 698 706 L S
698 706 M 699 706 L S
699 706 M 701 706 L S
701 706 M 702 706 L S
702 706 M 703 706 L S
703 706 M 704 706 L S
704 706 M 705 706 L S
705 706 M 707 706 L S
707 706 M 708 706 L S
708 706 M 709 706 L S
709 706 M 710 706 L S
710 706 M 711 706 L S
711 706 M 712 706 L S
712 706 M 714 706 L S
714 706 M 715 706 L S
715 706 M 716 706 L S
716 706 M 717 706 L S
717 706 M 718 706 L S
718 706 M 720 706 L S
720 706 M 721 706 L S
721 706 M 722 706 L S
722 706 M 723 706 L S
723 706 M 724 706 L S
724 706 M 726 706 L S
726 706 M 727 706 L S
727 706 M 728 706 L S
728 706 M 729 706 L S
729 706 M 730 706 L S
730 706 M 732 706 L S
732 706 M 733 706 L S
733 706 M 734 706 L S
734 706 M 735 706 L S
735 706 M 736 706 L S
736 706 M 737 706 L S
737 706 M 739 706 L S
739 706 M 740 706 L S
740 706 M 741 706 L S
741 706 M 742 706 L S
742 706 M 743 706 L S
743 706 M 745 706 L S
745 706 M 746 706 L S
746 706 M 747 706 L S
747 706 M 748 706 L S
748 706 M 749 706 L S
749 706 M 751 706 L S
751 706 M 752 706 L S
752 706 M 753 706 L S
753 706 M 754 706 L S
754 706 M 755 706 L S
755 706 M 757 706 L S
757 706 M 758 706 L S
758 706 M 759 706 L S
759 706 M 760 706 L S
760 706 M 761 706 L S
761 706 M 762 706 L S
762 706 M 764 706 L S
764 706 M 765 706 L S
765 706 M 766 706 L S
766 706 M 767 706 L S
767 706 M 768 706 L S
768 706 M 770 706 L S
770 706 M 771 706 L S
771 706 M 772 706 L S
772 706 M 773 706 L S
773 706 M 774 706 L S
774 706 M 776 706 L S
776 706 M 777 706 L S
777 706 M 778 706 L S
778 706 M 779 706 L S
779 706 M 780 706 L S
780 706 M 782 706 L S
782 706 M 783 706 L S
783 706 M 784 706 L S
784 706 M 785 706 L S
785 706 M 786 706 L S
786 706 M 787 706 L S
787 706 M 789 706 L S
789 706 M 790 706 L S
790 706 M 791 706 L S
791 706 M 792 706 L S
792 706 M 793 706 L S
793 706 M 795 706 L S
795 706 M 796 706 L S
796 706 M 797 706 L S
797 706 M 798 706 L S
798 706 M 799 706 L S
799 706 M 801 706 L S
801 706 M 802 706 L S
802 706 M 803 706 L S
803 706 M 804 706 L S
804 706 M 805 706 L S
805 706 M 807 706 L S
807 706 M 808 706 L S
808 706 M 809 706 L S
809 706 M 810 706 L S
810 706 M 811 706 L S
811 706 M 812 706 L S
812 706 M 814 706 L S
814 706 M 815 706 L S
815 706 M 816 707 L S
816 707 M 817 707 L S
817 707 M 818 708 L S
818 708 M 820 711 L S
820 711 M 821 715 L S
821 715 M 822 720 L S
822 720 M 823 727 L S
823 727 M 824 734 L S
824 734 M 826 738 L S
826 738 M 827 737 L S
827 737 M 828 729 L S
828 729 M 829 712 L S
829 712 M 830 690 L S
830 690 M 832 668 L S
832 668 M 833 651 L S
833 651 M 834 642 L S
834 642 M 835 643 L S
835 643 M 836 655 L S
836 655 M 837 674 L S
837 674 M 839 697 L S
839 697 M 840 718 L S
840 718 M 841 733 L S
841 733 M 842 739 L S
842 739 M 843 739 L S
843 739 M 845 733 L S
845 733 M 846 726 L S
846 726 M 847 720 L S
847 720 M 848 715 L S
848 715 M 849 711 L S
849 711 M 851 709 L S
851 709 M 852 708 L S
852 708 M 853 708 L S
853 708 M 854 708 L S
854 708 M 855 708 L S
855 708 M 857 708 L S
857 708 M 858 708 L S
858 708 M 859 707 L S
859 707 M 860 707 L S
860 707 M 861 707 L S
861 707 M 862 707 L S
862 707 M 864 707 L S
864 707 M 865 707 L S
865 707 M 866 707 L S
866 707 M 867 707 L S
867 707 M 868 707 L S
868 707 M 870 707 L S
870 707 M 871 707 L S
871 707 M 872 707 L S
872 707 M 873 707 L S
873 707 M 874 707 L S
874 707 M 876 707 L S
876 707 M 877 707 L S
877 707 M 878 707 L S
878 707 M 879 707 L S
879 707 M 880 707 L S
880 707 M 882 707 L S
882 707 M 883 707 L S
883 707 M 884 707 L S
884 707 M 885 707 L S
885 707 M 886 707 L S
886 707 M 887 707 L S
887 707 M 889 707 L S
889 707 M 890 707 L S
890 707 M 891 707 L S
891 707 M 892 707 L S
892 707 M 893 707 L S
893 707 M 895 707 L S
895 707 M 896 707 L S
896 707 M 897 707 L S
897 707 M 898 707 L S
898 707 M 899 707 L S
899 707 M 901 707 L S
901 707 M 902 707 L S
902 707 M 903 707 L S
903 707 M 904 707 L S
904 707 M 905 707 L S
905 707 M 907 707 L S
907 707 M 908 707 L S
908 707 M 909 707 L S
909 707 M 910 707 L S
910 707 M 911 707 L S
911 707 M 912 707 L S
912 707 M 914 707 L S
914 707 M 915 707 L S
915 707 M 916 707 L S
916 707 M 917 707 L S
917 707 M 918 707 L S
918 707 M 920 707 L S
920 707 M 921 706 L S
921 706 M 922 704 L S
922 704 M 923 700 L S
923 700 M 924 691 L S
924 691 M 926 674 L S
926 674 M 927 647 L S
927 647 M 928 609 L S
928 609 M 929 564 L S
929 564 M 930 514 L S
930 514 M 932 465 L S
932 465 M 933 419 L S
933 419 M 934 379 L S
934 379 M 935 343 L S
935 343 M 936 312 L S
936 312 M 937 285 L S
937 285 M 939 261 L S
939 261 M 940 240 L S
940 240 M 941 220 L S
941 220 M 942 204 L S
942 204 M 943 190 L S
943 190 M 945 178 L S
945 178 M 946 170 L S
946 170 M 947 164 L S
947 164 M 948 160 L S
948 160 M 949 158 L S
949 158 M 951 157 L S
951 157 M 952 156 L S
952 156 M 953 156 L S
953 156 M 954 156 L S
954 156 M 955 156 L S
955 156 M 957 156 L S
957 156 M 958 156 L S
958 156 M 959 156 L S
959 156 M 960 156 L S
960 156 M 961 156 L S
961 156 M 962 156 L S
962 156 M 964 156 L S
964 156 M 965 156 L S
965 156 M 966 156 L S
966 156 M 967 156 L S
967 156 M 968 156 L S
968 156 M 970 156 L S
970 156 M 971 156 L S
102 156 M 102 156 L S
102 156 M 102 156 L S
102 156 M 103 156 L S
103 156 M 104 156 L S
104 156 M 106 156 L S
106 156 M 107 156 L S
107 156 M 108 156 L S
108 156 M 109 156 L S
109 156 M 110 156 L S
110 156 M 112 156 L S
112 156 M 113 156 L S
113 156 M 114 156 L S
114 156 M 115 156 L S
115 156 M 116 156 L S
116 156 M 117 156 L S
117 156 M 119 156 L S
119 156 M 120 156 L S
120 156 M 121 156 L S
121 156 M 122 156 L S
122 156 M 123 156 L S
123 156 M 125 157 L S
125 157 M 126 158 L S
126 158 M 127 161 L S
127 161 M 128 165 L S
128 165 M 129 172 L S
129 172 M 131 181 L S
131 181 M 132 193 L S
132 193 M 133 207 L S
133 207 M 134 225 L S
134 225 M 135 244 L S
135 244 M 137 267 L S
137 267 M 138 291 L S
138 291 M 139 319 L S
139 319 M 140 351 L S
140 351 M 141 388 L S
141 388 M 142 429 L S
142 429 M 144 476 L S
144 476 M 145 526 L S
145 526 M 146 575 L S
146 575 M 147 619 L S
147 619 M 148 654 L S
148 654 M 150 679 L S
150 679 M 151 694 L S
151 694 M 152 702 L S
152 702 M 153 705 L S
153 705 M 154 707 L S
154 707 M 156 707 L S
156 707 M 157 707 L S
157 707 M 158 708 L S
158 708 M 159 708 L S
159 708 M 160 708 L S
160 708 M 162 708 L S
162 708 M 163 708 L S
163 708 M 164 708 L S
164 708 M 165 708 L S
165 708 M 166 708 L S
166 708 M 167 708 L S
167 708 M 169 708 L S
169 708 M 170 708 L S
170 708 M 171 708 L S
171 708 M 172 708 L S
172 708 M 173 708 L S
173 708 M 175 708 L S
175 708 M 176 708 L S
176 708 M 177 708 L S
177 708 M 178 708 L S
178 708 M 179 708 L S
179 708 M 181 708 L S
181 708 M 182 708 L S
182 708 M 183 708 L S
183 708 M 184 708 L S
184 708 M 185 708 L S
185 708 M 187 708 L S
187 708 M 188 708 L S
188 708 M 189 708 L S
189 708 M 190 708 L S
190 708 M 191 708 L S
191 708 M 192 708 L S
192 708 M 194 708 L S
194 708 M 195 708 L S
195 708 M 196 708 L S
196 708 M 197 708 L S
197 708 M 198 708 L S
198 708 M 200 708 L S
200 708 M 201 708 L S
201 708 M 202 708 L S
202 708 M 203 708 L S
203 708 M 204 708 L S
204 708 M 206 708 L S
206 708 M 207 708 L S
207 708 M 208 708 L S
208 708 M 209 708 L S
209 708 M 210 708 L S
210 708 M 212 708 L S
212 708 M 213 708 L S
213 708 M 214 708 L S
214 708 M 215 708 L S
215 708 M 216 708 L S
216 708 M 217 708 L S
217 708 M 219 708 L S
219 708 M 220 708 L S
220 708 M 221 708 L S
221 708 M 222 708 L S
222 708 M 223 709 L S
223 709 M 225 710 L S
225 710 M 226 712 L S
226 712 M 227 716 L S
227 716 M 228 721 L S
228 721 M 229 728 L S
229 728 M 231 735 L S
231 735 M 232 739 L S
232 739 M 233 739 L S
233 739 M 234 730 L S
234 730 M 235 714 L S
235 714 M 237 692 L S
237 692 M 238 669 L S
238 669 M 239 651 L S
239 651 M 240 642 L S
240 642 M 241 643 L S
241 643 M 242 654 L S
242 654 M 244 673 L S
244 673 M 245 695 L S
245 695 M 246 716 L S
246 716 M 247 731 L S
247 731 M 248 738 L S
248 738 M 250 737 L S
250 737 M 251 732 L S
251 732 M 252 725 L S
252 725 M 253 718 L S
253 718 M 254 713 L S
254 713 M 256 710 L S
256 710 M 257 708 L S
257 708 M 258 707 L S
258 707 M 259 706 L S
259 706 M 260 706 L S
260 706 M 262 706 L S
262 706 M 263 706 L S
263 706 M 264 706 L S
264 706 M 265 706 L S
265 706 M 266 706 L S
266 706 M 267 706 L S
267 706 M 269 706 L S
269 706 M 270 706 L S
270 706 M 271 706 L S
271 706 M 272 706 L S
272 706 M 273 706 L S
273 706 M 275 706 L S
275 706 M 276 706 L S
276 706 M 277 706 L S
277 706 M 278 706 L S
278 706 M 279 706 L S
279 706 M 281 706 L S
281 706 M 282 706 L S
282 706 M 283 706 L S
283 706 M 284 706 L S
284 706 M 285 706 L S
285 706 M 287 706 L S
287 706 M 288 706 L S
288 706 M 289 706 L S
289 706 M 290 706 L S
290 706 M 291 706 L S
291 706 M 292 706 L S
292 706 M 294 706 L S
294 706 M 295 706 L S
295 706 M 296 706 L S
296 706 M 297 706 L S
297 706 M 298 706 L S
298 706 M 300 706 L S
300 706 M 301 706 L S
301 706 M 302 706 L S
302 706 M 303 706 L S
303 706 M 304 706 L S
304 706 M 306 706 L S
306 706 M 307 706 L S
307 706 M 308 706 L S
308 706 M 309 706 L S
309 706 M 310 706 L S
310 706 M 312 706 L S
312 706 M 313 706 L S
313 706 M 314 706 L S
314 706 M 315 706 L S
315 706 M 316 706 L S
316 706 M 317 706 L S
317 706 M 319 706 L S
319 706 M 320 706 L S
320 706 M 321 706 L S
321 706 M 322 706 L S
322 706 M 323 706 L S
323 706 M 325 706 L S
325 706 M 326 706 L S
326 706 M 327 706 L S
327 706 M 328 706 L S
328 706 M 329 706 L S
329 706 M 331 706 L S
331 706 M 332 706 L S
332 706 M 333 706 L S
333 706 M 334 706 L S
334 706 M 335 706 L S
335 706 M 337 706 L S
337 706 M 338 706 L S
338 706 M 339 706 L S
339 706 M 340 706 L S
340 706 M 341 706 L S
341 706 M 342 706 L S
342 706 M 344 706 L S
344 706 M 345 706 L S
345 706 M 346 706 L S
346 706 M 347 706 L S
347 706 M 348 706 L S
348 706 M 350 706 L S
350 706 M 351 706 L S
351 706 M 352 706 L S
352 706 M 353 706 L S
353 706 M 354 706 L S
354 706 M 356 706 L S
356 706 M 357 706 L S
357 706 M 358 706 L S
358 706 M 359 706 L S
359 706 M 360 706 L S
360 706 M 362 706 L S
362 706 M 363 706 L S
363 706 M 364 706 L S
364 706 M 365 706 L S
365 706 M 366 706 L S
366 706 M 367 706 L S
367 706 M 369 706 L S
369 706 M 370 706 L S
370 706 M 371 706 L S
371 706 M 372 706 L S
372 706 M 373 706 L S
373 706 M 375 706 L S
375 706 M 376 706 L S
376 706 M 377 706 L S
377 706 M 378 706 L S
378 706 M 379 706 L S
379 706 M 381 706 L S
381 706 M 382 706 L S
382 706 M 383 706 L S
383 706 M 384 706 L S
384 706 M 385 706 L S
385 706 M 387 706 L S
387 706 M 388 706 L S
388 706 M 389 706 L S
389 706 M 390 706 L S
390 706 M 391 706 L S
391 706 M 392 706 L S
392 706 M 394 706 L S
394 706 M 395 706 L S
395 706 M 396 706 L S
396 706 M 397 706 L S
397 706 M 398 706 L S
398 706 M 400 706 L S
400 706 M 401 706 L S
401 706 M 402 706 L S
402 706 M 403 706 L S
403 706 M 404 706 L S
404 706 M 406 706 L S
406 706 M 407 706 L S
407 706 M 408 706 L S
408 706 M 409 706 L S
409 706 M 410 706 L S
410 706 M 412 706 L S
412 706 M 413 706 L S
413 706 M 414 706 L S
414 706 M 415 706 L S
415 706 M 416 706 L S
416 706 M 417 706 L S
417 706 M 419 706 L S
419 706 M 420 706 L S
420 706 M 421 707 L S
421 707 M 422 708 L S
422 708 M 423 710 L S
423 710 M 425 713 L S
425 713 M 426 718 L S
426 718 M 427 725 L S
427 725 M 428 732 L S
428 732 M 429 737 L S
429 737 M 431 738 L S
431 738 M 432 732 L S
432 732 M 433 717 L S
433 717 M 434 696 L S
434 696 M 435 674 L S
435 674 M 437 655 L S
437 655 M 438 643 L S
438 643 M 439 642 L S
439 642 M 440 651 L S
440 651 M 441 668 L S
441 668 M 442 691 L S
442 691 M 444 713 L S
444 713 M 445 730 L S
445 730 M 446 738 L S
446 738 M 447 739 L S
447 739 M 448 735 L S
448 735 M 450 728 L S
450 728 M 451 722 L S
451 722 M 452 716 L S
452 716 M 453 712 L S
453 712 M 454 710 L S
454 710 M 456 709 L S
456 709 M 457 708 L S
457 708 M 458 708 L S
458 708 M 459 708 L S
459 708 M 460 708 L S
460 708 M 462 708 L S
462 708 M 463 708 L S
463 708 M 464 708 L S
464 708 M 465 708 L S
465 708 M 466 708 L S
466 708 M 467 708 L S
467 708 M 469 708 L S
469 708 M 470 708 L S
470 708 M 471 708 L S
471 708 M 472 708 L S
472 708 M 473 708 L S
473 708 M 475 708 L S
475 708 M 476 708 L S
476 708 M 477 708 L S
477 708 M 478 708 L S
478 708 M 479 708 L S
479 708 M 481 708 L S
481 708 M 482 708 L S
482 708 M 483 708 L S
483 708 M 484 708 L S
484 708 M 485 708 L S
485 708 M 487 708 L S
487 708 M 488 708 L S
488 708 M 489 708 L S
489 708 M 490 708 L S
490 708 M 491 708 L S
491 708 M 492 708 L S
492 708 M 494 708 L S
494 708 M 495 708 L S
495 708 M 496 708 L S
496 708 M 497 708 L S
497 708 M 498 708 L S
498 708 M 500 708 L S
500 708 M 501 708 L S
501 708 M 502 708 L S
502 708 M 503 708 L S
503 708 M 504 708 L S
504 708 M 506 708 L S
506 708 M 507 708 L S
507 708 M 508 708 L S
508 708 M 509 708 L S
509 708 M 510 708 L S
510 708 M 512 708 L S
512 708 M 513 708 L S
513 708 M 514 708 L S
514 708 M 515 708 L S
515 708 M 516 708 L S
516 708 M 517 708 L S
517 708 M 519 708 L S
519 708 M 520 708 L S
520 708 M 521 708 L S
521 708 M 522 708 L S
522 708 M 523 708 L S
523 708 M 525 708 L S
525 708 M 526 708 L S
526 708 M 527 708 L S
527 708 M 528 708 L S
528 708 M 529 708 L S
529 708 M 531 708 L S
531 708 M 532 708 L S
532 708 M 533 708 L S
533 708 M 534 708 L S
534 708 M 535 708 L S
535 708 M 537 708 L S
537 708 M 537 708 L S
537 708 M 539 708 L S
539 708 M 540 708 L S
540 708 M 541 708 L S
541 708 M 542 708 L S
542 708 M 543 708 L S
543 708 M 545 708 L S
545 708 M 546 708 L S
546 708 M 547 708 L S
547 708 M 548 708 L S
548 708 M 549 708 L S
549 708 M 551 708 L S
551 708 M 552 708 L S
552 708 M 553 708 L S
553 708 M 554 708 L S
554 708 M 555 708 L S
555 708 M 557 708 L S
557 708 M 558 708 L S
558 708 M 559 708 L S
559 708 M 560 708 L S
560 708 M 561 708 L S
561 708 M 562 708 L S
562 708 M 564 708 L S
564 708 M 565 708 L S
565 708 M 566 708 L S
566 708 M 567 708 L S
567 708 M 568 708 L S
568 708 M 570 708 L S
570 708 M 571 708 L S
571 708 M 572 708 L S
572 708 M 573 708 L S
573 708 M 574 708 L S
574 708 M 576 708 L S
576 708 M 577 708 L S
577 708 M 578 708 L S
578 708 M 579 708 L S
579 708 M 580 708 L S
580 708 M 582 708 L S
582 708 M 583 708 L S
583 708 M 584 708 L S
584 708 M 585 708 L S
585 708 M 586 708 L S
586 708 M 587 708 L S
587 708 M 589 708 L S
589 708 M 590 708 L S
590 708 M 591 708 L S
591 708 M 592 708 L S
592 708 M 593 708 L S
593 708 M 595 708 L S
595 708 M 596 708 L S
596 708 M 597 708 L S
597 708 M 598 708 L S
598 708 M 599 708 L S
599 708 M 601 708 L S
601 708 M 602 708 L S
602 708 M 603 708 L S
603 708 M 604 708 L S
604 708 M 605 708 L S
605 708 M 607 708 L S
607 708 M 608 708 L S
608 708 M 609 708 L S
609 708 M 610 708 L S
610 708 M 611 708 L S
611 708 M 612 708 L S
612 708 M 614 708 L S
614 708 M 615 708 L S
615 708 M 616 708 L S
616 708 M 617 708 L S
617 708 M 618 708 L S
618 708 M 620 709 L S
620 709 M 621 710 L S
621 710 M 622 713 L S
622 713 M 623 717 L S
623 717 M 624 723 L S
624 723 M 626 730 L S
626 730 M 627 736 L S
627 736 M 628 740 L S
628 740 M 629 737 L S
629 737 M 630 726 L S
630 726 M 632 708 L S
632 708 M 633 685 L S
633 685 M 634 664 L S
634 664 M 635 648 L S
635 648 M 636 641 L S
636 641 M 637 645 L S
637 645 M 639 659 L S
639 659 M 640 679 L S
640 679 M 641 702 L S
641 702 M 642 721 L S
642 721 M 643 734 L S
643 734 M 645 738 L S
645 738 M 646 736 L S
646 736 M 647 730 L S
647 730 M 648 723 L S
648 723 M 649 717 L S
649 717 M 651 712 L S
651 712 M 652 709 L S
652 709 M 653 707 L S
653 707 M 654 707 L S
654 707 M 655 706 L S
655 706 M 657 706 L S
657 706 M 658 706 L S
658 706 M 659 706 L S
659 706 M 660 706 L S
660 706 M 661 706 L S
661 706 M 662 706 L S
662 706 M 664 706 L S
664 706 M 665 706 L S
665 706 M 666 706 L S
666 706 M 667 706 L S
667 706 M 668 706 L S
668 706 M 670 706 L S
670 706 M 671 706 L S
671 706 M 672 706 L S
672 706 M 673 706 L S
673 706 M 674 706 L S
674 706 M 676 706 L S
676 706 M 677 706 L S
677 706 M 678 706 L S
678 706 M 679 706 L S
679 706 M 680 706 L S
680 706 M 682 706 L S
682 706 M 683 706 L S
683 706 M 684 706 L S
684 706 M 685 706 L S
685 706 M 686 706 L S
686 706 M 687 706 L S
687 706 M 689 706 L S
689 706 M 690 706 L S
690 706 M 691 706 L S
691 706 M 692 706 L S
692 706 M 693 706 L S
693 706 M 695 706 L S
695 706 M 696 706 L S
696 706 M 697 706 L S
697 706 M 698 706 L S
698 706 M 699 706 L S
699 706 M 701 706 L S
701 706 M 702 706 L S
702 706 M 703 706 L S
703 706 M 704 706 L S
704 706 M 705 706 L S
705 706 M 707 706 L S
707 706 M 708 706 L S
708 706 M 709 706 L S
709 706 M 710 706 L S
710 706 M 711 706 L S
711 706 M 712 706 L S
712 706 M 714 706 L S
714 706 M 715 706 L S
715 706 M 716 706 L S
716 706 M 717 706 L S
717 706 M 718 706 L S
718 706 M 720 706 L S
720 706 M 721 706 L S
721 706 M 722 706 L S
722 706 M 723 706 L S
723 706 M 724 706 L S
724 706 M 726 706 L S
726 706 M 727 706 L S
727 706 M 728 706 L S
728 706 M 729 706 L S
729 706 M 730 706 L S
730 706 M 732 706 L S
732 706 M 733 706 L S
733 706 M 734 706 L S
734 706 M 735 706 L S
735 706 M 736 706 L S
736 706 M 737 706 L S
737 706 M 739 706 L S
739 706 M 740 706 L S
740 706 M 741 706 L S
741 706 M 742 706 L S
742 706 M 743 706 L S
743 706 M 745 706 L S
745 706 M 746 706 L S
746 706 M 747 706 L S
747 706 M 748 706 L S
748 706 M 749 706 L S
749 706 M 751 706 L S
751 706 M 752 706 L S
752 706 M 753 706 L S
753 706 M 754 706 L S
754 706 M 755 706 L S
755 706 M 757 706 L S
757 706 M 758 706 L S
758 706 M 759 706 L S
759 706 M 760 706 L S
760 706 M 761 706 L S
761 706 M 762 706 L S
762 706 M 764 706 L S
764 706 M 765 706 L S
765 706 M 766 706 L S
766 706 M 767 706 L S
767 706 M 768 706 L S
768 706 M 770 706 L S
770 706 M 771 706 L S
771 706 M 772 706 L S
772 706 M 773 706 L S
773 706 M 774 706 L S
774 706 M 776 706 L S
776 706 M 777 706 L S
777 706 M 778 706 L S
778 706 M 779 706 L S
779 706 M 780 706 L S
780 706 M 782 706 L S
782 706 M 783 706 L S
783 706 M 784 706 L S
784 706 M 785 706 L S
785 706 M 786 706 L S
786 706 M 787 706 L S
787 706 M 789 706 L S
789 706 M 790 706 L S
790 706 M 791 706 L S
791 706 M 792 706 L S
792 706 M 793 706 L S
793 706 M 795 706 L S
795 706 M 796 706 L S
796 706 M 797 706 L S
797 706 M 798 706 L S
798 706 M 799 706 L S
799 706 M 801 706 L S
801 706 M 802 706 L S
802 706 M 803 706 L S
803 706 M 804 706 L S
804 706 M 805 706 L S
805 706 M 807 706 L S
807 706 M 808 706 L S
808 706 M 809 706 L S
809 706 M 810 706 L S
810 706 M 811 706 L S
811 706 M 812 706 L S
812 706 M 814 706 L S
814 706 M 815 706 L S
815 706 M 816 706 L S
816 706 M 817 707 L S
817 707 M 818 708 L S
818 708 M 820 711 L S
820 711 M 821 714 L S
821 714 M 822 720 L S
822 720 M 823 727 L S
823 727 M 824 733 L S
824 733 M 826 738 L S
826 738 M 827 737 L S
827 737 M 828 728 L S
828 728 M 829 712 L S
829 712 M 830 690 L S
830 690 M 832 668 L S
832 668 M 833 651 L S
833 651 M 834 642 L S
834 642 M 835 643 L S
835 643 M 836 655 L S
836 655 M 837 674 L S
837 674 M 839 697 L S
839 697 M 840 718 L S
840 718 M 841 733 L S
841 733 M 842 739 L S
842 739 M 843 739 L S
843 739 M 845 733 L S
845 733 M 846 726 L S
846 726 M 847 720 L S
847 720 M 848 715 L S
848 715 M 849 712 L S
849 712 M 851 710 L S
851 710 M 852 708 L S
852 708 M 853 708 L S
853 708 M 854 708 L S
854 708 M 855 708 L S
855 708 M 857 708 L S
857 708 M 858 708 L S
858 708 M 859 708 L S
859 708 M 860 708 L S
860 708 M 861 708 L S
861 708 M 862 708 L S
862 708 M 864 708 L S
864 708 M 865 708 L S
865 708 M 866 708 L S
866 708 M 867 708 L S
867 708 M 868 708 L S
868 708 M 870 708 L S
870 708 M 871 708 L S
871 708 M 872 708 L S
872 708 M 873 708 L S
873 708 M 874 708 L S
874 708 M 876 708 L S
876 708 M 877 708 L S
877 708 M 878 708 L S
878 708 M 879 708 L S
879 708 M 880 708 L S
880 708 M 882 708 L S
882 708 M 883 708 L S
883 708 M 884 708 L S
884 708 M 885 708 L S
885 708 M 886 708 L S
886 708 M 887 708 L S
887 708 M 889 708 L S
889 708 M 890 708 L S
890 708 M 891 708 L S
891 708 M 892 708 L S
892 708 M 893 708 L S
893 708 M 895 708 L S
895 708 M 896 708 L S
896 708 M 897 708 L S
897 708 M 898 708 L S
898 708 M 899 708 L S
899 708 M 901 708 L S
901 708 M 902 708 L S
902 708 M 903 708 L S
903 708 M 904 708 L S
904 708 M 905 708 L S
905 708 M 907 708 L S
907 708 M 908 708 L S
908 708 M 909 708 L S
909 708 M 910 708 L S
910 708 M 911 708 L S
911 708 M 912 708 L S
912 708 M 914 708 L S
914 708 M 915 708 L S
915 708 M 916 708 L S
916 708 M 917 708 L S
917 708 M 918 707 L S
918 707 M 920 707 L S
920 707 M 921 707 L S
921 707 M 922 705 L S
922 705 M 923 700 L S
923 700 M 924 691 L S
924 691 M 926 674 L S
926 674 M 927 647 L S
927 647 M 928 609 L S
928 609 M 929 563 L S
929 563 M 930 514 L S
930 514 M 932 465 L S
932 465 M 933 419 L S
933 419 M 934 379 L S
934 379 M 935 343 L S
935 343 M 936 312 L S
936 312 M 937 285 L S
937 285 M 939 261 L S
939 261 M 940 240 L S
940 240 M 941 220 L S
941 220 M 942 204 L S
942 204 M 943 190 L S
943 190 M 945 178 L S
945 178 M 946 170 L S
946 170 M 947 164 L S
947 164 M 948 160 L S
948 160 M 949 158 L S
949 158 M 951 157 L S
951 157 M 952 156 L S
952 156 M 953 156 L S
953 156 M 954 156 L S
954 156 M 955 156 L S
955 156 M 957 156 L S
957 156 M 958 156 L S
958 156 M 959 156 L S
959 156 M 960 156 L S
960 156 M 961 156 L S
961 156 M 962 156 L S
962 156 M 964 156 L S
964 156 M 965 156 L S
965 156 M 966 156 L S
966 156 M 967 156 L S
967 156 M 968 156 L S
968 156 M 970 156 L S
970 156 M 971 156 L S
971 156 M 972 156 L S
972 156 M 972 156 L S
/Courier-Bold findfont 27 scalefont setfont
101 764 M (Zgoubi|Zpop                                                                     ) H
101 743 M (11-06-2019                                                                      ) H
/Courier-Bold findfont 26 scalefont setfont
160 85 M (* # TRAJECTORIES - STORAGE FILE, 11-06-2019 12:00:27 *                                                                            ) H
293 755 M (  BZ     (T)  vs.    s     (m)                                                                                                    ) H
26 42 M (Mi-ma H/V:   0.115       5.96    /  8.613E-24   1.32                                                                              ) H
26 21 M (Part#  1-     1 (*); Lmnt#     1; pass#       1-      4, [    1];   2927 pnts                                                     ) H
showpage
